"name","code"
"BL",1
"BU",2
"BW",3
"CE",4
"CG",5
"CK",6
"CO",7
"CP",8
"DA",9
"DO",10
"EW",11
"FL",12
"FR",13
"GA",14
"GR",15
"HG",16
"LL",17
"MY",18
"PA",19
"PI",20
"PN",21
"RA",22
"SC",23
