"PROFILE","Landclass","Upper.Depth","Lower.Depth","clay","silt","sand","pH_CaCl2","Total_Carbon","EC","ESP","ExchNa","ExchK","ExchCa","ExchMg","CEC"
1,"native pasture",0,0.02,8,9,83,6.35,1.07,0.168,0.3,0.01,0.71,3.17,0.59,5.29
1,"native pasture",0.02,0.05,8,9,83,6.34,0.98,0.137,0.5,0.02,0.47,3.5,0.6,3.7
1,"native pasture",0.05,0.1,8,10,82,4.76,0.73,0.072,0.9,0.02,0.52,1.34,0.22,2.86
1,"native pasture",0.1,0.2,8,10,83,4.51,0.39,0.034,0.2,0,0.38,1.03,0.22,2.92
1,"native pasture",0.2,0.3,NA,10,79,4.64,0.23,NA,0.9,0.02,0.43,1.5,0.5,2.6
1,"native pasture",0.7,0.8,57,8,36,6.49,0.35,0.059,0.3,0.04,0.46,9.13,5.02,14.96
2,"improved pasture",0,0.02,9,10,81,5.91,1.14,0.123,0.3,0.01,0.7,2.92,0.51,3.59
2,"improved pasture",0.02,0.05,9,10,80,5.94,1.14,0.101,0.6,0.02,0.56,3.2,0.5,4
2,"improved pasture",0.05,0.1,9,10,80,5.63,1.01,0.026,NA,NA,NA,NA,NA,NA
2,"improved pasture",0.1,0.2,NA,10,81,4.22,0.48,0.042,NA,NA,NA,NA,NA,NA
2,"improved pasture",0.38,0.5,36,8,56,6.48,0.18,0.053,0.4,0.04,0.49,6,2.3,8.6
2,"improved pasture",0.7,0.8,52,6,43,6.64,0.11,0.072,0.9,0.12,0.42,7.08,6.13,10.64
3,"Forest",0,0.02,15,11,74,6.86,5.02,0.293,0.2,0.03,0.91,8.15,3.37,11
3,"Forest",0.02,0.05,10,11,79,6.34,1.22,0.092,0.1,0.01,0.53,3.29,1.31,5.35
3,"Forest",0.05,0.1,NA,11,81,5.74,0.84,0.082,NA,0,0.6,2.35,1.08,4.57
3,"Forest",0.1,0.18,9,11,80,5.16,0.67,0.055,0.4,0.01,0.84,1.7,0.8,3.4
3,"Forest",0.35,0.5,20,8,73,5.11,0.22,0.048,0.5,0.02,0.69,2.37,1.08,4.88
3,"Forest",0.7,0.8,37,9,54,6.05,0.17,0.088,0.7,0.06,0.33,6.15,2.35,9.23
4,"Cropping",0,0.02,NA,18,53,5.79,2.64,0.162,0.2,0.02,1.79,6.54,2.76,12.11
4,"Cropping",0.02,0.05,31,18,51,5.34,2.46,0.166,0.1,0.01,1.4,5.95,2.62,10.54
4,"Cropping",0.05,0.1,39,18,43,5.5,1.76,0.088,NA,0.02,1.26,6.02,2.84,10.73
4,"Cropping",0.1,0.14,42,17,41,5.61,1.7,0.093,0.2,0.02,1.51,7,3.3,10.9
4,"Cropping",0.14,0.2,NA,17,28,6.17,1.15,0.075,0.3,0.04,1.65,8.3,4.3,12.9
4,"Cropping",0.7,0.8,51,13,35,7.4,1.94,0.175,NA,0.18,0.98,7.18,5.98,12.84
5,"Forest",0,0.02,38,24,36,5.46,6.78,0.269,0.8,0.11,0.99,7.29,4.69,13.94
5,"Forest",0.02,0.05,42,22,35,5.22,3.22,0.083,0.6,0.08,0.95,7.6,4.27,13
5,"Forest",0.05,0.09,NA,20,34,5.19,2.38,0.085,0.8,0.09,1.03,7.21,3.91,13.22
5,"Forest",0.09,0.15,61,15,24,5.35,1.53,0.048,0.9,0.1,0.71,7.04,4.02,12.09
5,"Forest",0.15,0.2,61,16,23,5.38,1.43,0.044,0.9,0.14,1.03,9.67,4.89,14.92
5,"Forest",0.7,0.8,NA,12,21,7.36,1.46,0.295,1.1,0.19,0.8,9.77,5.8,15.93
6,"improved pasture",0,0.02,10,14,77,5.05,0.58,0.039,0.5,0.02,0.51,2.51,0.84,4.03
6,"improved pasture",0.02,0.05,10,14,76,4.89,0.59,0.036,0.6,0.02,0.38,1.98,0.77,3.5
6,"improved pasture",0.05,0.1,NA,16,72,4.78,0.5,0.049,1.1,0.04,0.39,2.37,0.85,4.2
6,"improved pasture",0.1,0.16,14,16,71,5.08,0.27,0.04,0.2,0.01,0.32,2.47,1.06,4.51
6,"improved pasture",0.16,0.26,17,16,68,5.22,0.27,0.021,0.6,0.03,0.29,3.13,1.25,4.24
6,"improved pasture",0.7,0.8,19,14,67,5.61,0.11,0.025,1.1,0.07,0.45,4.2,1.6,5.4
7,"Cropping",0,0.02,13,10,77,5.62,1.05,0.118,0.4,0.02,0.76,2.5,1.53,5.39
7,"Cropping",0.02,0.05,13,10,76,4.98,0.59,0.061,0.3,0.01,0.63,2.2,1.34,4.69
7,"Cropping",0.05,0.1,13,9,77,4.89,0.51,0.059,0.5,0.02,0.4,2.15,1.24,4.65
7,"Cropping",0.1,0.2,68,8,23,5.83,0.65,0.043,1,0.16,0.38,8.67,6.59,15.34
7,"Cropping",0.7,0.8,47,11,42,6.7,0.23,0.063,2.2,0.61,0.53,14.22,12.95,25.85
8,"native pasture",0,0.02,14,15,72,5.19,2.14,0.159,0.1,0.01,1.07,3.7,0.98,7.08
8,"native pasture",0.02,0.05,15,16,69,4.65,1.83,0.161,0.1,0,0.92,3.58,0.96,7.27
8,"native pasture",0.05,0.1,14,16,70,4.33,1.55,0.126,0.1,0.01,0.72,2.66,0.74,6.25
8,"native pasture",0.1,0.26,12,13,75,4.63,0.43,0.049,NA,NA,NA,NA,NA,NA
8,"native pasture",0.26,0.31,15,13,73,4.99,0.32,0.037,0.1,0,0.58,2.62,0.78,5.14
8,"native pasture",0.31,0.41,45,11,44,5.67,0.33,0.031,0.1,0,0.59,4.61,2.04,8.21
8,"native pasture",0.7,0.8,58,11,32,6.17,0.27,0.033,0.4,0.07,0.71,9.3,6.36,16.58
9,"native pasture",0,0.02,NA,30,57,5.21,1.64,0.152,NA,0.01,1.52,3.98,1.45,7.36
9,"native pasture",0.02,0.05,15,29,57,4.73,1.26,0.126,0.2,0.01,1.02,3.79,1.21,6.8
9,"native pasture",0.05,0.1,17,27,56,4.5,0.94,0.106,0.1,0.01,0.91,3.69,1.09,7.18
9,"native pasture",0.1,0.15,20,25,55,4.86,0.69,0.068,0.3,0.02,0.64,3.9,1.4,6.3
9,"native pasture",0.15,0.25,23,25,52,5.28,0.41,0.047,0.4,0.03,0.6,4.74,1.62,7.34
9,"native pasture",0.25,0.35,26,24,50,5.53,0.31,0.029,0.1,0.01,0.53,5.5,2.14,9.42
9,"native pasture",0.7,0.8,32,11,57,6.52,0.15,0.041,0.4,0.05,0.43,8.8,2.9,11.1
10,"improved pasture",0,0.02,26,13,60,5.33,1.56,0.122,0.1,0.01,1.13,4.89,1.93,8.59
10,"improved pasture",0.02,0.05,27,12,62,5.09,1.55,0.098,0.1,0.01,0.96,5.21,1.77,8.97
10,"improved pasture",0.05,0.1,30,12,59,4.92,1.42,0.076,NA,0.01,0.79,5.09,1.7,8.55
10,"improved pasture",0.1,0.2,47,12,42,5.94,0.7,0.039,0.1,0.01,0.74,6.76,2.61,11.45
10,"improved pasture",0.7,0.8,49,9,43,6.38,0.22,0.033,0.3,0.03,0.4,6.5,4,9.9
11,"Forest",0,0.02,11,30,56,5.87,7.16,0.583,NA,0.03,0.73,7.41,3,11
11,"Forest",0.02,0.05,11,32,56,5.89,4.52,0.183,0.1,0.01,0.61,7.76,3.65,12.41
11,"Forest",0.05,0.09,NA,NA,NA,NA,NA,NA,NA,NA,NA,NA,NA,NA
11,"Forest",0.1,0.2,11,32,58,5.61,1.58,0.089,0.2,0.02,0.57,3.98,2.02,6.34
11,"Forest",0.2,0.3,21,27,52,5.58,0.25,0.031,1.8,0.08,0.55,1.9,1.86,5.44
11,"Forest",0.7,0.8,41,20,40,5.3,0.14,0.042,2.6,0.25,0.31,3.84,5.17,10.06
12,"Forest",0,0.02,18,14,68,5.57,4.21,0.718,0.2,0.03,1.87,7.07,1.88,10.83
12,"Forest",0.02,0.05,22,13,64,4.65,1.49,0.499,13,1,0.74,2.17,3.76,6.85
12,"Forest",0.05,0.1,22,14,64,4.63,1.28,0.081,0,0,0.63,4.56,1.08,7.74
12,"Forest",0.1,0.2,NA,12,60,5.27,0.61,0.063,0.1,0.01,0.59,5.84,1.74,8.8
12,"Forest",0.7,0.8,46,10,44,6.49,0.17,0.042,0.3,0.03,0.64,6.33,3.79,10.65
13,"Cropping",0,0.02,25,19,57,6.38,1.81,0.265,0.1,0.01,1.28,7.08,1.73,9.23
13,"Cropping",0.02,0.05,NA,19,55,6.07,1.87,0.194,0.1,0.01,1.15,7.43,1.65,10.62
13,"Cropping",0.05,0.1,29,18,53,5.29,1.52,0.094,0.3,0.03,1.35,6.94,1.88,12.03
13,"Cropping",0.1,0.2,38,15,48,5.45,0.78,0.051,0,0,1.11,7.36,2.44,11.35
13,"Cropping",0.7,0.8,65,10,26,6.62,0.27,0.079,0.3,0.05,0.87,9.42,5.59,16.28
14,"Cropping",0,0.02,14,30,56,5.37,1.94,0.304,0.6,0.05,1.46,4.45,1.83,7.94
14,"Cropping",0.02,0.05,16,31,54,4.91,1.95,0.511,0.9,0.06,1.04,4.28,1.6,7.37
14,"Cropping",0.05,0.1,17,31,53,4.52,1.5,0.118,0.4,0.02,0.68,2.95,1.14,6.1
14,"Cropping",0.1,0.2,26,22,52,5.38,0.37,0.031,NA,0.06,0.45,4.09,1.72,5.11
14,"Cropping",0.2,0.3,30,24,46,5.36,0.34,0.042,NA,0.04,0.33,4.04,2.21,5.19
14,"Cropping",0.7,0.8,57,11,32,4.69,0.19,0.028,2.4,0.33,0.23,4.42,9.06,12.5
15,"native pasture",0,0.02,20,19,62,5.19,1.63,0.152,0.2,0.02,1.69,5.39,1.77,9.69
15,"native pasture",0.02,0.05,21,19,61,4.99,1.53,0.116,0.3,0.02,1.24,4.43,1.55,8.66
15,"native pasture",0.05,0.1,21,19,60,4.74,1.46,0.076,0.2,0.02,1.14,4.97,1.46,10.75
15,"native pasture",0.1,0.2,33,19,48,5.52,0.78,0.035,0,0,0.9,7.24,2.45,11.15
15,"native pasture",0.2,0.3,37,15,48,5.84,0.6,0.036,0.1,0.01,0.72,7.79,2.53,10.91
15,"native pasture",0.7,0.8,60,9,30,6.64,0.31,0.048,0.4,0.05,0.55,8.38,3.8,12.8
16,"Forest",0,0.02,22,25,51,5.88,6.42,0.95,NA,0.03,2.15,11.78,4.59,15.95
16,"Forest",0.02,0.05,27,27,47,5.29,2.62,0.511,0.3,0.01,0.32,1.25,0.52,2.14
16,"Forest",0.05,0.1,30,25,46,5.4,1.57,0.209,0.3,0.04,2.27,8.92,2.9,14.53
16,"Forest",0.1,0.22,41,23,35,5.86,0.92,0.068,0.2,0.03,1.72,9.34,3.76,13.15
16,"Forest",0.22,0.32,47,19,33,5.98,0.85,0.048,0.3,0.05,1.31,9.73,4.23,12.9
16,"Forest",0.7,0.8,63,10,28,6.38,0.29,0.044,0.6,0.1,0.59,9.43,6.03,16.46
17,"Forest",0,0.02,26,20,48,6.96,12.74,0.946,0.3,0.11,1.89,25.39,7.06,28.21
17,"Forest",0.02,0.05,17,21,59,7.21,8.65,0.51,0.2,0.03,1.1,10.86,3.8,15.6
17,"Forest",0.05,0.1,18,18,63,7.01,2.27,0.175,0.7,0.11,1.87,9.8,3.67,16.44
17,"Forest",0.1,0.2,19,18,63,6.72,1.62,0.175,0.3,0.03,1.73,6.93,2.94,10.06
17,"Forest",0.22,0.32,22,17,61,6.65,1.25,0.115,0.4,0.05,1.8,7.68,2.7,10.03
17,"Forest",0.7,0.8,66,7,27,7.3,0.35,0.207,1,0.17,1.1,11.37,4.64,16.5
18,"improved pasture",0,0.02,13,29,57,6.23,1.09,0.167,7.9,0.47,0.54,3.01,1.97,5.97
18,"improved pasture",0.02,0.05,13,28,59,6.15,0.88,0.156,6.1,0.31,0.44,2.9,1.47,5.15
18,"improved pasture",0.05,0.1,13,29,57,6.15,0.87,0.125,5.7,0.28,0.24,3.05,1.4,5.42
18,"improved pasture",0.1,0.2,20,26,55,5.91,0.32,0.96,5.2,0.23,0.27,2.51,1.43,5.37
18,"improved pasture",0.2,0.3,26,25,49,5.87,0.33,0.91,4.7,0.26,0.29,3.02,1.87,6.19
18,"improved pasture",0.7,0.8,35,23,43,6.22,0.11,0.121,2.9,0.53,0.18,4.5,3.8,7.4
19,"native pasture",0,0.02,13,14,74,4.57,1.15,0.087,5.8,0.22,0.66,1.45,1.45,4.11
19,"native pasture",0.02,0.05,13,13,74,4.42,1.15,0.175,7.2,0.28,0.51,1.55,1.53,3.9
19,"native pasture",0.05,0.1,15,15,70,4.33,1.05,0.117,9.6,0.42,0.4,1.76,1.78,4.8
19,"native pasture",0.1,0.16,17,13,71,4.61,0.89,0.069,NA,0.59,0.32,2.51,2.67,5.52
19,"native pasture",0.16,0.26,32,13,56,6.1,0.5,0.223,17.4,2.62,0.3,3.74,8.37,11.97
19,"native pasture",0.7,0.8,37,14,48,7.28,0.16,1.271,NA,6.81,0.46,3.74,12.76,19.35
20,"Cropping",0,0.02,9,9,81,4.64,1.08,0.301,11.1,0.31,0.87,1.01,0.63,3.02
20,"Cropping",0.02,0.05,9,9,82,4.26,1.08,0.18,6.4,0.15,0.61,1.06,0.59,3.03
20,"Cropping",0.05,0.1,9,9,81,4.15,0.78,0.09,NA,NA,NA,NA,NA,NA
20,"Cropping",0.1,0.3,5,11,85,5.33,0.24,0.033,4,0.1,0.18,1.4,0.7,1.9
20,"Cropping",0.3,0.4,37,7,56,6.3,0.32,0.214,12.1,1.66,0.27,4.19,7.61,12.44
20,"Cropping",0.7,0.8,20,14,67,7.17,0.09,0.292,21.2,2.88,0.33,2.86,7.5,10.23
21,"Cropping",0,0.02,17,20,64,4.89,1.65,0.105,2.2,0.12,1.33,2.6,1.5,4.8
21,"Cropping",0.02,0.05,17,21,62,4.57,1.56,0.109,1.9,0.1,0.87,2.6,1.5,5
21,"Cropping",0.05,0.1,17,20,62,4.38,1.38,0.077,NA,0.1,0.6,3,1.6,4.7
21,"Cropping",0.1,0.25,NA,19,67,4.51,0.47,0.034,4,0.15,0.22,1.9,1.5,3.6
21,"Cropping",0.25,0.35,25,16,59,5.05,0.25,0.073,13.2,0.95,0.3,2,3.92,5.29
22,"Cropping",0,0.02,NA,20,67,5.38,3.64,0.493,0.9,0.09,2.14,5.8,2.5,9.1
22,"Cropping",0.02,0.05,15,19,66,4.91,1.83,0.246,0.8,0.06,1.28,4.13,1.8,7.59
22,"Cropping",0.05,0.1,12,19,68,4.62,1.62,0.119,0.5,0.03,0.9,4.47,1.76,7.75
22,"Cropping",0.1,0.19,17,18,65,5.62,0.78,0.057,0.2,0.02,0.64,5.03,2.15,8.32
22,"Cropping",0.19,0.29,30,15,56,6.35,0.51,0.056,0.4,0.04,0.57,6.09,3.93,10.74
22,"Cropping",0.7,0.8,36,28,36,7.4,0.21,0.191,NA,0.48,1.12,9.07,19.67,24.25
23,"Forest",0,0.02,18,23,57,4.84,4.02,0.243,1.2,0.11,1.47,5.22,2.62,9.97
23,"Forest",0.02,0.05,20,22,58,4.53,2.18,0.165,0.6,0.04,0.87,3.66,2.14,7.63
23,"Forest",0.14,0.24,29,20,51,5.15,1.65,0.052,0.2,0.03,0.8,7.72,3.87,12.98
23,"Forest",0.7,0.8,44,28,28,7.48,0.51,0.064,1,0.24,0.5,11.53,10.71,20.06
24,"Cropping",0,0.02,17,20,63,5.03,1.6,0.228,0.4,0.02,0.96,2.22,1.03,4.8
24,"Cropping",0.02,0.05,18,19,63,4.59,1.54,0.125,0.6,0.03,0.83,2.6,0.9,5.1
24,"Cropping",0.05,0.1,19,20,61,4.57,1.4,0.056,0.1,0.01,0.8,3.64,0.99,7.23
24,"Cropping",0.12,0.22,25,17,57,5.8,0.47,0.039,0.4,0.03,0.72,5.2,1.53,8.12
24,"Cropping",0.7,0.8,44,12,43,7.4,0.26,0.175,NA,0.1,1.18,7.63,4.68,11.99
25,"Forest",0,0.02,20,15,63,5.13,4.39,0.417,0.7,0.08,2.92,6.54,2.75,12.36
25,"Forest",0.02,0.05,19,23,57,5.05,3.95,0.434,0.5,0.06,2.7,6.12,2.82,11.9
25,"Forest",0.05,0.1,20,21,58,4.75,3.12,0.352,0.7,0.07,2.03,5.14,2.42,9.79
25,"Forest",0.3,0.4,32,15,52,6.57,0.87,0.115,0.9,0.1,1.5,6.07,4.23,11.39
25,"Forest",0.7,0.8,NA,21,32,7.03,0.25,0.125,4.8,1.5,1.1,10.29,18.46,26.67
26,"Cropping",0,0.02,16,13,71,5.07,2.23,0.235,3.8,0.33,1.66,3.47,3.18,7.83
26,"Cropping",0.02,0.05,18,13,69,4.8,1.77,0.17,4.9,0.35,0.85,3.02,3.03,6.93
26,"Cropping",0.05,0.1,19,13,68,4.71,1.36,0.105,6.2,0.47,0.63,3.06,3.45,7.11
26,"Cropping",0.15,0.24,51,8,42,6.27,0.63,0.134,10.4,2.09,0.74,5.09,12.23,14.29
26,"Cropping",0.7,0.8,50,9,40,7.81,0.84,0.82,16.4,4.93,0.91,7.52,16.72,23.34
27,"improved pasture",0,0.02,12,9,78,5.03,1.56,0.245,2.7,0.15,1.39,2.55,1.3,5.46
27,"improved pasture",0.02,0.05,12,9,77,4.44,1.24,0.163,NA,0.1,0.82,2.29,1.01,4.61
27,"improved pasture",0.05,0.1,13,9,78,4.33,1.23,0.116,1.2,0.05,0.75,2.63,1.04,4.72
27,"improved pasture",0.12,0.22,42,7,50,5.56,0.73,0.05,0.5,0.07,0.85,7.66,4.88,13.15
27,"improved pasture",0.7,0.8,NA,22,30,7.4,0.2,0.142,1.9,0.42,0.95,9.96,11.14,19.67
28,"Forest",0,0.02,35,24,35,5.53,11.94,0.618,2,0.48,1.67,13.62,8.14,19.26
28,"Forest",0.02,0.05,39,25,34,5.38,6.32,0.347,2.1,0.38,1.53,9.66,6.67,16.15
28,"Forest",0.05,0.1,24,20,56,5.36,4.01,0.146,1.9,0.25,1.21,6.83,5.07,13.23
28,"Forest",0.15,0.3,NA,13,63,5.66,1.4,0.079,1.8,0.21,0.87,5.8,4.24,10.35
28,"Forest",0.3,0.4,53,7,40,5.96,0.69,0.052,3.5,0.65,1.27,8.23,8.59,17.93
28,"Forest",0.7,0.8,60,7,32,6.77,0.34,0.139,7.7,1.48,1.01,7.92,8.81,19.91
29,"improved pasture",0,0.02,19,21,60,4.73,1.58,0.268,2.7,0.13,1.02,2.72,1.01,5.04
29,"improved pasture",0.02,0.05,18,20,61,4.4,1.36,0.146,1.8,0.07,0.69,2.29,0.76,4.41
29,"improved pasture",0.05,0.1,19,20,60,4.26,1.19,0.061,0.8,0.03,0.42,2.05,0.69,4.91
29,"improved pasture",0.1,0.2,34,16,50,4.53,0.57,0.035,0.5,0.03,0.49,3.42,1.46,6.84
29,"improved pasture",0.2,0.3,43,14,43,5.15,0.39,0.038,0.5,0.04,0.63,4.34,2.26,6.17
29,"improved pasture",0.3,0.4,56,12,31,5.68,0.35,0.044,0.3,0.03,0.6,5.3,3.47,9.32
29,"improved pasture",0.7,0.8,57,13,29,6.5,0.13,0.06,0.9,0.1,0.57,5.63,4.9,8.58
